Affan’s WebJournal
…
2.0 Importing Files —-

bikes_tbl <- read_excel(path = "C:/Users/Muhammad Affan Qamar/Documents/GitHub/bdsc-affan1947/00_data/01_bike_sales/01_raw_data/bikes.xlsx")

orderlines_tbl <- read_excel(path = "C:/Users/Muhammad Affan Qamar/Documents/GitHub/bdsc-affan1947/00_data/01_bike_sales/01_raw_data/orderlines.xlsx")

bikeshops_tbl  <- read_excel(path = "C:/Users/Muhammad Affan Qamar/Documents/GitHub/bdsc-affan1947/00_data/01_bike_sales/01_raw_data/bikeshops.xlsx" )

3.0 Examining Data —-

orderlines_tbl

## # A tibble: 15,644 × 7
##    ...1  order.id order.line order.date          customer.id product.id quantity
##    <chr>    <dbl>      <dbl> <dttm>                    <dbl>      <dbl>    <dbl>
##  1 1            1          1 2015-01-07 00:00:00           2       2681        1
##  2 2            1          2 2015-01-07 00:00:00           2       2411        1
##  3 3            2          1 2015-01-10 00:00:00          10       2629        1
##  4 4            2          2 2015-01-10 00:00:00          10       2137        1
##  5 5            3          1 2015-01-10 00:00:00           6       2367        1
##  6 6            3          2 2015-01-10 00:00:00           6       1973        1
##  7 7            3          3 2015-01-10 00:00:00           6       2422        1
##  8 8            3          4 2015-01-10 00:00:00           6       2655        1
##  9 9            3          5 2015-01-10 00:00:00           6       2247        1
## 10 10           4          1 2015-01-11 00:00:00          22       2408        1
## # … with 15,634 more rows

bikes_tbl

## # A tibble: 231 × 9
##    bike.id model    model.year frame.material weight price category gender url  
##      <dbl> <chr>         <dbl> <chr>           <dbl> <dbl> <chr>    <chr>  <chr>
##  1    2875 Aeroad …       2020 carbon           7.6   4579 Road - … unisex http…
##  2    2873 Aeroad …       2020 carbon           7.27  6919 Road - … unisex http…
##  3    2874 Aeroad …       2020 carbon           7.1   6429 Road - … unisex http…
##  4    2876 Aeroad …       2020 carbon           7.73  5069 Road - … unisex http…
##  5    2877 Aeroad …       2020 carbon           7.83  3609 Road - … unisex http…
##  6    2225 Aeroad …       2019 carbon           6.8   6139 Road - … unisex http…
##  7    2091 Aeroad …       2019 carbon           6.8   5359 Road - … unisex http…
##  8    2086 Aeroad …       2021 carbon           7.6   2629 Road - … unisex http…
##  9    2088 Aeroad …       2020 carbon           7.3   3699 Road - … unisex http…
## 10    2120 Aeroad …       2020 carbon           7.2   3219 Road - … female http…
## # … with 221 more rows
…
